{
  "symbol": "getSysStatDetail_month",
  "url": "/khlReport/getSysStatDetail/",
  "data": {
    "status": 0,
    "message": "ok",
    "data": [
      {
        "id": 120,
        "name": "唇辣号",
        "amount": 1255008.46,
        "amountRatio": "57.31",
        "badReviewRate": "0.82",
        "badReviewRateRatio": "0.82",
        "goalBar": 0
      }
    ],
    "createdAt": 1481598268,
    "updatedAt": 1481598268
  }
}