{
  "status": 0,
  "message": "ok",
  "data": [
    {
      "sortId": "1",
      "sortName": "优惠",
      "dishList": [
        {
          "dishName": "酸辣牛肉粉",
          "dishId": "001",
          "dishPrice": "12",
          "dishPriceCoupon": "8",
          "couponType": "one"
        },
        {
          "dishName": "韩式辣白菜",
          "dishId": "002",
          "dishPrice": "12",
          "dishPriceCoupon": "8",
          "couponType": "one"
        }
      ]
    },
    {
      "sortId": "2",
      "sortName": "汉拿山石锅拌饭",
      "dishList": [
        {
          "dishName": "汉拿山石锅拌饭",
          "dishId": "003",
          "dishPrice": "29"
        },
        {
          "dishName": "牛肉石锅拌饭",
          "dishId": "004",
          "dishPrice": "29"
        },
        {
          "dishName": "辣白菜五花肉石锅拌饭",
          "dishId": "005",
          "dishPrice": "29"
        },
        {
          "dishName": "汉拿山石锅拌饭",
          "dishId": "006",
          "dishPrice": "29"
        },
        {
          "dishName": "汉拿山石锅拌饭",
          "dishId": "007",
          "dishPrice": "29"
        },
        {
          "dishName": "辣白菜五花肉石锅拌饭",
          "dishId": "005",
          "dishPrice": "29"
        },
        {
          "dishName": "汉拿山石锅拌饭",
          "dishId": "006",
          "dishPrice": "29"
        },
        {
          "dishName": "汉拿山石锅拌饭",
          "dishId": "007",
          "dishPrice": "29"
        }
      ]
    },
    {
      "sortId": "3",
      "sortName": "汤品",
      "dishList": [
        {
          "dishName": "韩式大酱汤",
          "dishId": "011",
          "dishPrice": "31.5"
        },
        {
          "dishName": "韩式泡菜汤",
          "dishId": "011",
          "dishPrice": "31.5"
        },
        {
          "dishName": "腊牛肉粉丝汤",
          "dishId": "011",
          "dishPrice": "31.5"
        },
        {
          "dishName": "腊牛肉粉丝汤",
          "dishId": "011",
          "dishPrice": "31.5"
        },
        {
          "dishName": "腊牛肉粉丝汤",
          "dishId": "011",
          "dishPrice": "31.5"
        },
        {
          "dishName": "腊牛肉粉丝汤",
          "dishId": "011",
          "dishPrice": "31.5"
        }
      ]
    },
    {
      "sortId": "999",
      "sortName": "主食",
      "dishList": [

      ]
    },
    {
      "sortId": "999",
      "sortName": "主食",
      "dishList": [

      ]
    },
    {
      "sortId": "999",
      "sortName": "主食",
      "dishList": [

      ]
    },
    {
      "sortId": "999",
      "sortName": "主食",
      "dishList": [

      ]
    },
    {
      "sortId": "999",
      "sortName": "主食",
      "dishList": [

      ]
    },
    {
      "sortId": "999",
      "sortName": "主食",
      "dishList": [

      ]
    },
    {
      "sortId": "999",
      "sortName": "主食",
      "dishList": [

      ]
    },
    {
      "sortId": "999",
      "sortName": "主食",
      "dishList": [

      ]
    },
    {
      "sortId": "888",
      "sortName": "小菜",
      "dishList": [

      ]
    },
    {
      "sortId": "888",
      "sortName": "小菜",
      "dishList": [

      ]
    },
    {
      "sortId": "888",
      "sortName": "小菜",
      "dishList": [

      ]
    },
    {
      "sortId": "888",
      "sortName": "小菜",
      "dishList": [

      ]
    },
    {
      "sortId": "888",
      "sortName": "小菜",
      "dishList": [

      ]
    }
  ],
  "createdAt": 1482205038,
  "updatedAt": 1482205038
}