{
  "status": 0,
  "messsage": "ok",
  "data": {
    "keeperId": 21020,
    "phone": "18310019016",
    "warehouseId": 106,
    "warehouseName": "泰美",
    "sys": "BXC",
    "sysName": "泰美",
    "level": 2,
    "isBind": true,
    "feature": "FINANCIAL",
    "isHide": 1,
    "tabNo": "0"
  },
  "createdAt": 1480411397,
  "updatedAt": 1480411397
}