{
  "status": 200,
  "message": "OK",
  "data": {
    "appId": "wx6f16a6328479fb5f",
    "nonceStr": "RbAClGyIkOADoOxH",
    "timeStamp": "1517577659",
    "url": "http://www.kehuilai.net/group/specialDetail.html?wid=9&tableId=26799&id=65&khlauth=1&from=groupmessage&isappinstalled=0",
    "signature": "181a5408f52cd9adb4b5fb248b25c2b10478525a"
  },
  "createdAt": 1517577659,
  "updatedAt": 1517577659
}