{
  "status": 0,
  "message": "ok",
  "data": [
    {
      "dishName": "酸辣牛肉粉",
      "dishId": "001",
      "dishPrice": "12",
      "dishNum": "2"
    },
    {
      "dishName": "韩式辣白菜",
      "dishId": "002",
      "dishPrice": "12",
      "dishNum": "2"
    },
    {
      "dishName": "汉拿山石锅拌饭",
      "dishId": "003",
      "dishPrice": "29",
      "dishNum": "2"
    },
    {
      "dishName": "牛肉石锅拌饭",
      "dishId": "004",
      "dishPrice": "29",
      "dishNum": "2"
    },
    {
      "dishName": "辣白菜五花肉石锅拌饭",
      "dishId": "005",
      "dishPrice": "29",
      "dishNum": "2"
    },
    {
      "dishName": "辣白菜五花肉石锅拌饭",
      "dishId": "005",
      "dishPrice": "29",
      "dishNum": "2"
    },
    {
      "dishName": "汉拿山石锅拌饭",
      "dishId": "007",
      "dishPrice": "29",
      "dishNum": "2"
    }
  ],
  "createdAt": 1482205038,
  "updatedAt": 1482205038
}